…
```
## Number of genes annotated
```

```r
featAnnot %>%
    group_by(gene_biotype) %>%
    summarize(n = n()) %>%
    arrange(desc(n))
```

```
## # A tibble: 44 x 2
##    gene_biotype               n
##    <chr>                  <int>
##  1 protein_coding         22040
##  2 processed_pseudogene    8996
##  3 lincRNA                 5307
##  4 TEC                     3088
##  5 antisense_RNA           2727
##  6 unprocessed_pseudogene  2568
##  7 miRNA                   2207
##  8 snoRNA                  1507
##  9 snRNA                   1385
## 10 processed_transcript     777
## # … with 34 more rows
```
…
