…
```
## # A tibble: 322 x 4
## # Groups:   ExperimentID, DatasetID [322]
##    ExperimentID DatasetID    DN    UP
##           <int> <chr>     <int> <int>
##  1            8 63         3360   640
##  2            8 64         2125  1275
##  3            8 8           480   520
##  4           11 10          264   336
##  5           11 9            60    84
##  6           12 11          309   291
##  7           13 12         1390   610
##  8           13 13          594   606
##  9           13 14          550   450
## 10           13 15          520   480
## # … with 312 more rows
```
…
